<?xml version="1.0" encoding="UTF-8"?>
<session version="1.0">
<refactoring comment="Copy element &apos;UserController.java&apos; to &apos;05-oauth-server/src/main/java/com.way2learnonline&apos;&#x0D;&#x0A;- Original project: &apos;01-oauth2-auth-resource-combined-solution&apos;&#x0D;&#x0A;- Destination element: &apos;05-oauth-server/src/main/java/com.way2learnonline&apos;&#x0D;&#x0A;- Original element: &apos;com.way2learnonline.UserController.java&apos;" description="Copy compilation unit" destination="=05-oauth-server/src\/main\/java&lt;com.way2learnonline" element1="/src\/main\/java&lt;com.way2learnonline{UserController.java" files="0" flags="589830" folders="0" id="org.eclipse.jdt.ui.copy" policy="org.eclipse.jdt.ui.copyResources" stamp="1550395728066" units="1" version="1.0"/>
</session>